{
    "siteTitle": "tintinthong.gitlab.io",
    "outputDir": "_site",
    "copy": {
        "/about": "/"
    },
    "feed": {
        "type": "rss",
        "title": "Justin Thong's blog",
        "description": "Justin Thong's blog",
        "id": "https://tintinthong.gitlab.io",
        "link": "https://tintinthong.gitlab.io/posts",
        "copyright": "Copyright: Michael Weiss",
        "language": "en",
        "generator": "Elmstatic",
        "author": {
          "name": "Justin Thong",
          "link": "https://tintinthong.gitlab.io/about"
        }
    },
    "tags": ["r","other","software", "elm", "puzzle", "javascript", "tutorial","haskell", "productivity", "algorithm","math"]
}
